ciclo,trat,rep,rendimiento,Id_Cultivar,Id_Ensayo
Largo-Intermedio,cf,2,1951,58,1
Largo,cf,2,2171,58,1
Largo,sf,2,2030,58,1
Largo,cf,1,2127,58,1
Largo-Intermedio,cf,1,2757,58,1
Largo,cf,3,1982,58,1
Largo,sf,1,1879,58,1
Largo,sf,3,1997,58,1
Largo-Intermedio,cf,3,2039,58,1
Corto-Intermedio,cf,3,1609,15,1
Corto-Intermedio,cf,2,1433,15,1
Corto-Intermedio,cf,1,1628,15,1
Corto-Intermedio,sf,2,1536,15,1
Corto-Intermedio,sf,3,1386,15,1
Corto-Intermedio,sf,1,1406,15,1
Corto-Intermedio,sf,2,1228,14,1
Corto-Intermedio,cf,2,1830,14,1
Corto-Intermedio,sf,1,1024,14,1
Corto-Intermedio,cf,1,1669,14,1
Corto-Intermedio,sf,3,1166,14,1
Corto-Intermedio,cf,3,1485,14,1
Largo,sf,2,2159,59,1
Largo,cf,2,2383,59,1
Largo,sf,3,2421,59,1
Largo-Intermedio,cf,1,1973,59,1
Largo,sf,1,2119,59,1
Largo,cf,3,1994,59,1
Largo-Intermedio,cf,3,1827,59,1
Largo,cf,1,2691,59,1
Largo-Intermedio,cf,2,2425,59,1
Largo,sf,1,1865,92,1
Largo,sf,3,2171,92,1
Largo,sf,2,1749,92,1
Largo-Intermedio,cf,3,2006,92,1
Largo-Intermedio,cf,2,2339,92,1
Largo,cf,1,2002,92,1
Largo,cf,2,2363,92,1
Largo,cf,3,1827,92,1
Largo-Intermedio,cf,1,1888,92,1
Largo,sf,2,2810,47,1
Largo,cf,3,2252,47,1
Largo,cf,1,2627,47,1
Largo-Intermedio,cf,1,2383,47,1
Largo,sf,1,2252,47,1
Largo-Intermedio,cf,3,2448,47,1
Largo,cf,2,2989,47,1
Largo-Intermedio,cf,2,2225,47,1
Largo,sf,3,2779,47,1
Corto-Intermedio,sf,3,2010,27,1
Corto-Intermedio,cf,1,2036,27,1
Corto-Intermedio,sf,1,1705,27,1
Corto-Intermedio,cf,2,1696,27,1
Corto-Intermedio,cf,3,1767,27,1
Largo-Intermedio,cf,3,1272,27,1
Largo-Intermedio,cf,2,1445,27,1
Largo-Intermedio,cf,1,1838,27,1
Corto-Intermedio,sf,2,2247,27,1
Corto-Intermedio,sf,1,1672,18,1
Corto-Intermedio,sf,2,2080,18,1
Corto-Intermedio,cf,1,1931,18,1
Corto-Intermedio,sf,3,1892,18,1
Corto-Intermedio,cf,2,2108,18,1
Corto-Intermedio,cf,3,2132,18,1
Corto-Intermedio,sf,1,1408,19,1
Corto-Intermedio,cf,1,2102,19,1
Corto-Intermedio,sf,2,1895,19,1
Corto-Intermedio,cf,2,2321,19,1
Corto-Intermedio,sf,3,1528,19,1
Corto-Intermedio,cf,3,1986,19,1
Largo,cf,2,1290,49,1
Largo,cf,1,1048,49,1
Largo,cf,3,1309,49,1
Largo,sf,2,1461,49,1
Largo,sf,3,2012,49,1
Largo-Intermedio,cf,2,1462,49,1
Largo,sf,1,1242,49,1
Largo-Intermedio,cf,3,1846,49,1
Corto-Intermedio,cf,1,1507,22,1
Corto-Intermedio,sf,3,1517,22,1
Corto-Intermedio,sf,2,2117,22,1
Corto-Intermedio,sf,1,1469,22,1
Corto-Intermedio,cf,3,1601,22,1
Corto-Intermedio,cf,2,1951,22,1
Corto-Intermedio,sf,2,1186,23,1
Corto-Intermedio,sf,1,1200,23,1
Corto-Intermedio,sf,3,1384,23,1
Corto-Intermedio,cf,2,1826,23,1
Corto-Intermedio,cf,1,1501,23,1
Corto-Intermedio,cf,3,2637,23,1
Largo,cf,1,2824,66,1
Largo,cf,2,3205,66,1
Largo,cf,3,2773,66,1
Largo-Intermedio,cf,3,2928,66,1
Largo,sf,3,2124,66,1
Largo,sf,2,2511,66,1
Largo,sf,1,2794,66,1
Largo-Intermedio,cf,2,1953,66,1
Corto-Intermedio,cf,2,2721,38,1
Largo-Intermedio,cf,1,1245,38,1
Largo-Intermedio,cf,3,3449,38,1
Corto-Intermedio,cf,1,3686,38,1
Corto-Intermedio,cf,3,3697,38,1
Corto-Intermedio,sf,2,2768,38,1
Corto-Intermedio,sf,1,2226,38,1
Corto-Intermedio,sf,3,3179,38,1
Largo-Intermedio,cf,2,1608,38,1
Corto-Intermedio,sf,3,1899,39,1
Corto-Intermedio,cf,2,2679,39,1
Corto-Intermedio,sf,1,2423,39,1
Corto-Intermedio,sf,2,1886,39,1
Corto-Intermedio,cf,3,2269,39,1
Corto-Intermedio,cf,1,2383,39,1
Largo,cf,2,1987,63,1
Largo,cf,3,1669,63,1
Largo,sf,3,1550,63,1
Largo,sf,2,1795,63,1
Largo,cf,1,1842,63,1
Largo,sf,1,1529,63,1
Largo-Intermedio,cf,3,1488,63,1
Largo-Intermedio,cf,1,1752,63,1
Largo-Intermedio,cf,2,2369,63,1
Largo,sf,1,1798,56,1
Largo,sf,2,1577,56,1
Largo,cf,3,873,56,1
Largo,cf,2,2693,56,1
Largo,sf,3,1614,56,1
Largo,cf,1,1965,56,1
Largo-Intermedio,cf,3,2090,84,1
Largo-Intermedio,cf,2,2127,84,1
Corto-Intermedio,cf,2,1803,80,1
Corto-Intermedio,cf,3,1808,80,1
Corto-Intermedio,sf,3,1566,80,1
Corto-Intermedio,cf,1,1384,80,1
Corto-Intermedio,sf,2,2071,80,1
Corto-Intermedio,sf,1,2117,80,1
Corto-Intermedio,sf,2,2810,8,1
Corto-Intermedio,sf,1,2176,8,1
Corto-Intermedio,sf,3,2056,8,1
Corto-Intermedio,cf,1,2008,8,1
Corto-Intermedio,cf,2,2536,8,1
Corto-Intermedio,cf,3,2000,8,1
Corto-Intermedio,cf,3,1814,21,1
Corto-Intermedio,sf,3,1489,21,1
Corto-Intermedio,cf,2,2265,21,1
Corto-Intermedio,sf,1,1611,21,1
Corto-Intermedio,sf,2,1730,21,1
Corto-Intermedio,cf,1,2282,21,1
Corto-Intermedio,sf,2,942,78,1
Corto-Intermedio,cf,3,788,78,1
Corto-Intermedio,cf,2,1112,78,1
Corto-Intermedio,cf,1,996,78,1
Corto-Intermedio,sf,3,719,78,1
Largo,sf,1,801,50,1
Largo,cf,1,932,50,1
Largo,sf,3,935,50,1
Largo,sf,2,1228,50,1
Largo,cf,2,1215,50,1
Largo,cf,3,805,50,1
Corto-Intermedio,cf,3,1816,24,1
Corto-Intermedio,cf,2,1251,24,1
Corto-Intermedio,sf,3,1364,24,1
Corto-Intermedio,sf,1,1484,24,1
Corto-Intermedio,sf,2,1494,24,1
Corto-Intermedio,cf,1,1506,24,1
Largo-Intermedio,cf,1,969,24,1
Largo-Intermedio,cf,3,1049,24,1
Largo-Intermedio,cf,2,1017,24,1
Largo,sf,1,1613,41,1
Largo,cf,2,2053,41,1
Largo,sf,3,1462,41,1
Largo,cf,3,1823,41,1
Largo,sf,2,1632,41,1
Largo,cf,1,1712,41,1
Largo-Intermedio,cf,3,2208,41,1
Largo-Intermedio,cf,1,1482,41,1
Largo-Intermedio,cf,2,2033,41,1
Corto-Intermedio,cf,3,1652,73,1
Corto-Intermedio,sf,1,2391,73,1
Corto-Intermedio,cf,2,2581,73,1
Corto-Intermedio,sf,2,2597,73,1
Corto-Intermedio,sf,3,2176,73,1
Corto-Intermedio,cf,1,2144,73,1
Corto-Intermedio,cf,3,3106,6,1
Largo-Intermedio,cf,1,1526,6,1
Corto-Intermedio,sf,1,2014,6,1
Largo-Intermedio,cf,3,1676,6,1
Corto-Intermedio,cf,1,2441,6,1
Corto-Intermedio,cf,2,2266,6,1
Corto-Intermedio,sf,2,2039,6,1
Corto-Intermedio,sf,3,1989,6,1
Largo-Intermedio,cf,2,2104,6,1
Largo,sf,2,1826,42,1
Largo,sf,1,2034,42,1
Largo-Intermedio,cf,3,2332,42,1
Largo,cf,2,1623,42,1
Largo-Intermedio,cf,2,1777,42,1
Largo-Intermedio,cf,1,1545,42,1
Largo,cf,3,1278,42,1
Largo,cf,1,1449,42,1
Largo,sf,3,1440,42,1
Largo,sf,1,2043,45,1
Largo-Intermedio,cf,3,2388,45,1
Largo,cf,2,1789,45,1
Largo-Intermedio,cf,2,1865,45,1
Largo-Intermedio,cf,1,1941,45,1
Largo,cf,1,1836,45,1
Largo,sf,2,1621,45,1
Largo,cf,3,2240,45,1
Largo,sf,3,2131,45,1
Corto-Intermedio,cf,2,1871,2,1
Corto-Intermedio,sf,3,1862,2,1
Corto-Intermedio,cf,3,1692,2,1
Corto-Intermedio,sf,1,1924,2,1
Corto-Intermedio,cf,1,1678,2,1
Corto-Intermedio,sf,2,1567,2,1
Corto-Intermedio,cf,2,2391,3,1
Corto-Intermedio,cf,1,2439,3,1
Corto-Intermedio,sf,1,1804,3,1
Corto-Intermedio,sf,3,2037,3,1
Corto-Intermedio,cf,3,2952,3,1
Corto-Intermedio,sf,2,1478,3,1
Corto-Intermedio,cf,3,1840,4,1
Corto-Intermedio,cf,2,2361,4,1
Largo-Intermedio,cf,2,2540,4,1
Largo-Intermedio,cf,3,2185,4,1
Corto-Intermedio,sf,1,2237,4,1
Corto-Intermedio,cf,1,2104,4,1
Corto-Intermedio,sf,2,3014,4,1
Corto-Intermedio,sf,3,2386,4,1
Largo-Intermedio,cf,2,566,85,1
Corto-Intermedio,cf,1,2089,85,1
Corto-Intermedio,sf,3,2037,85,1
Corto-Intermedio,sf,2,2424,85,1
Largo-Intermedio,cf,3,671,85,1
Corto-Intermedio,sf,1,1911,85,1
Corto-Intermedio,cf,3,2252,85,1
Corto-Intermedio,cf,2,2704,85,1
Largo-Intermedio,cf,3,2797,44,1
Largo-Intermedio,cf,1,2508,44,1
Largo-Intermedio,cf,2,2044,44,1
Largo,cf,1,2083,44,1
Largo,cf,3,2493,44,1
Largo,sf,1,2621,44,1
Largo,cf,2,2041,44,1
Largo,sf,2,2280,44,1
Largo,sf,3,2359,44,1
Corto-Intermedio,cf,2,1641,11,1
Corto-Intermedio,cf,1,1748,11,1
Corto-Intermedio,sf,1,1516,11,1
Corto-Intermedio,sf,2,1532,11,1
Corto-Intermedio,cf,3,1781,11,1
Corto-Intermedio,sf,3,1415,11,1
Largo-Intermedio,cf,2,2208,52,1
Largo,cf,1,1507,52,1
Largo,sf,1,1530,52,1
Largo,sf,3,2126,52,1
Largo-Intermedio,cf,1,1853,52,1
Largo,cf,2,1624,52,1
Largo,cf,3,1803,52,1
Largo,sf,2,1775,52,1
Largo-Intermedio,cf,3,1769,52,1
Corto-Intermedio,sf,1,2283,16,1
Corto-Intermedio,cf,1,2293,16,1
Corto-Intermedio,sf,2,2158,16,1
Corto-Intermedio,cf,3,2836,16,1
Corto-Intermedio,sf,3,2166,16,1
Corto-Intermedio,cf,2,1996,16,1
Largo,cf,3,1202,70,1
Largo,sf,2,1002,70,1
Largo,cf,2,1617,70,1
Largo,sf,3,1501,70,1
Largo,cf,1,1463,70,1
Largo,sf,1,1698,70,1
Largo-Intermedio,cf,2,1869,30,1
Largo-Intermedio,cf,1,2077,30,1
Corto-Intermedio,sf,1,1258,30,1
Corto-Intermedio,sf,3,1472,30,1
Largo-Intermedio,cf,3,1865,30,1
Corto-Intermedio,sf,2,1772,30,1
Corto-Intermedio,cf,1,2062,30,1
Corto-Intermedio,cf,2,2070,30,1
Corto-Intermedio,cf,3,2689,30,1
Corto-Intermedio,cf,2,1745,31,1
Largo-Intermedio,cf,1,1481,31,1
Largo-Intermedio,cf,3,1738,31,1
Corto-Intermedio,cf,1,1568,31,1
Largo-Intermedio,cf,2,1424,31,1
Corto-Intermedio,cf,3,2122,31,1
Corto-Intermedio,sf,2,1983,31,1
Corto-Intermedio,sf,1,1660,31,1
Corto-Intermedio,sf,3,1645,31,1
Corto-Intermedio,cf,1,1536,32,1
Corto-Intermedio,cf,2,1834,32,1
Corto-Intermedio,cf,3,1717,32,1
Corto-Intermedio,sf,2,2195,32,1
Corto-Intermedio,sf,1,1552,32,1
Corto-Intermedio,sf,3,1776,32,1
Largo-Intermedio,cf,2,1870,81,1
Corto-Intermedio,cf,2,1896,81,1
Corto-Intermedio,cf,3,2249,81,1
Corto-Intermedio,cf,1,1621,81,1
Largo-Intermedio,cf,3,1837,81,1
Corto-Intermedio,sf,3,1905,81,1
Largo-Intermedio,cf,1,2230,81,1
Corto-Intermedio,sf,2,2270,81,1
Corto-Intermedio,sf,1,1613,81,1
Largo,cf,3,1798,54,1
Largo,cf,2,1691,54,1
Largo,sf,3,1401,54,1
Largo,sf,1,1357,54,1
Largo,sf,2,1345,54,1
Largo,cf,1,1335,54,1
Corto-Intermedio,cf,1,1456,74,1
Corto-Intermedio,cf,3,1610,74,1
Corto-Intermedio,cf,2,1611,74,1
Corto-Intermedio,sf,3,1486,74,1
Corto-Intermedio,sf,2,1626,74,1
Corto-Intermedio,sf,2,1750,35,1
Corto-Intermedio,sf,3,1832,35,1
Corto-Intermedio,cf,3,1637,35,1
Corto-Intermedio,cf,1,1561,35,1
Corto-Intermedio,cf,2,2200,35,1
Corto-Intermedio,cf,1,1908,9,1
Corto-Intermedio,cf,3,2624,9,1
Corto-Intermedio,sf,3,1962,9,1
Corto-Intermedio,cf,2,2521,9,1
Corto-Intermedio,sf,2,2163,9,1
Corto-Intermedio,sf,1,2499,9,1
Corto-Intermedio,sf,1,1454,29,1
Corto-Intermedio,sf,3,1824,29,1
Corto-Intermedio,cf,3,1566,29,1
Corto-Intermedio,cf,2,1623,29,1
Corto-Intermedio,cf,1,1397,29,1
Corto-Intermedio,sf,2,1510,29,1
Largo,cf,2,2308,46,1
Largo,cf,3,2131,46,1
Largo-Intermedio,cf,3,2250,46,1
Largo-Intermedio,cf,2,2907,46,1
Largo,sf,1,2329,46,1
Largo,sf,2,1997,46,1
Largo,cf,1,1721,46,1
Largo,sf,3,1831,46,1
Largo-Intermedio,cf,3,1726,67,1
Largo-Intermedio,cf,2,1672,67,1
Corto-Intermedio,cf,3,2361,72,1
Corto-Intermedio,sf,1,2002,72,1
Corto-Intermedio,cf,1,2679,72,1
Corto-Intermedio,sf,3,2503,72,1
Corto-Intermedio,cf,2,2171,72,1
Corto-Intermedio,sf,2,1818,72,1
Corto-Intermedio,sf,1,1710,5,1
Corto-Intermedio,sf,3,1497,5,1
Corto-Intermedio,cf,1,1717,5,1
Corto-Intermedio,sf,2,1693,5,1
Corto-Intermedio,cf,3,1874,5,1
Corto-Intermedio,cf,2,2349,5,1
Largo,sf,3,4588.02,58,2
Largo,cf,3,4520.24,58,2
Largo,sf,1,3548.25,58,2
Largo,sf,2,4675.98,58,2
Largo,cf,2,5223.86,58,2
Largo,cf,1,3936.94,58,2
Largo-Intermedio,cf,1,3882.13,58,2
Largo-Intermedio,cf,3,5510.6,58,2
Largo-Intermedio,cf,2,5417.03,58,2
Corto,cf,3,3654.24,79,2
Corto,cf,1,3955.98,79,2
Corto,cf,2,3795.23,79,2
Corto-Intermedio,sf,1,4795.49,15,2
Corto-Intermedio,cf,1,5159.38,15,2
Corto-Intermedio,cf,2,4873.49,15,2
Corto-Intermedio,sf,3,6425.4,15,2
Corto-Intermedio,sf,2,5357.14,15,2
Corto-Intermedio,cf,3,4565.38,15,2
Corto,cf,3,3161.31,15,2
Corto,cf,1,5276.16,15,2
Corto,cf,2,2109.09,15,2
Corto-Intermedio,sf,1,5146.69,14,2
Corto-Intermedio,cf,3,5536.45,14,2
Corto-Intermedio,cf,1,5097.25,14,2
Corto,cf,1,4522.08,14,2
Corto-Intermedio,sf,3,5660.58,14,2
Corto,cf,2,4661.63,14,2
Corto-Intermedio,sf,2,4764.01,14,2
Corto,cf,3,4420,14,2
Corto-Intermedio,cf,2,5199.12,14,2
Corto-Intermedio,sf,2,4729.84,26,2
Corto,cf,1,3908.7,26,2
Corto-Intermedio,cf,1,4548.89,26,2
Corto-Intermedio,sf,3,5655.19,26,2
Corto-Intermedio,cf,3,4446.52,26,2
Corto-Intermedio,sf,1,5184.58,26,2
Corto-Intermedio,cf,2,3242.79,26,2
Corto,cf,3,3222.53,26,2
Corto,cf,2,2212.32,26,2
Largo,cf,2,4706.51,59,2
Largo,cf,3,5918.02,59,2
Largo,sf,2,5071.33,59,2
Largo-Intermedio,cf,1,4495.02,59,2
Largo,sf,3,5065.37,59,2
Largo,cf,1,4530.68,59,2
Largo,sf,1,3898.8,59,2
Largo-Intermedio,cf,3,5282.19,59,2
Largo-Intermedio,cf,2,5232.11,59,2
Largo,cf,2,5469.83,47,2
Largo,cf,3,4991.22,47,2
Largo,sf,3,4860.03,47,2
Largo-Intermedio,cf,3,6652.03,47,2
Largo,cf,1,4806.41,47,2
Largo,sf,1,4899.84,47,2
Largo,sf,2,5168.87,47,2
Largo-Intermedio,cf,1,5410.96,47,2
Largo-Intermedio,cf,2,5154.22,47,2
Largo-Intermedio,cf,3,6189.96,27,2
Corto-Intermedio,cf,2,5431.02,27,2
Largo-Intermedio,cf,1,4846.93,27,2
Largo-Intermedio,cf,2,5274.42,27,2
Corto-Intermedio,cf,3,5946.53,27,2
Corto-Intermedio,sf,2,5283.48,27,2
Corto-Intermedio,cf,1,5430.04,27,2
Corto-Intermedio,sf,3,5256.68,27,2
Corto-Intermedio,sf,1,4568.98,27,2
Largo-Intermedio,cf,1,4164.45,13,2
Largo-Intermedio,cf,2,4490.37,13,2
Corto-Intermedio,cf,1,3896.93,13,2
Corto-Intermedio,sf,3,3780.47,13,2
Largo-Intermedio,cf,3,5130.85,13,2
Corto-Intermedio,cf,3,4296.49,13,2
Corto-Intermedio,sf,2,4075.11,13,2
Corto-Intermedio,sf,1,3035.8,13,2
Corto-Intermedio,cf,2,4116.16,13,2
Corto-Intermedio,sf,1,4939.44,18,2
Corto-Intermedio,sf,3,5970.9,18,2
Corto-Intermedio,sf,2,5890.04,18,2
Corto,cf,1,4094.97,18,2
Corto-Intermedio,cf,1,5209.94,18,2
Corto,cf,2,4657.88,18,2
Corto-Intermedio,cf,2,6060.99,18,2
Corto,cf,3,3321.8,18,2
Corto-Intermedio,cf,3,6016.71,18,2
Corto-Intermedio,sf,2,4954.95,19,2
Corto,cf,1,3372.09,19,2
Corto-Intermedio,cf,2,4813.38,19,2
Corto-Intermedio,cf,3,4109.65,19,2
Corto-Intermedio,sf,3,5596.2,19,2
Corto-Intermedio,cf,1,5626.82,19,2
Corto,cf,2,1671.51,19,2
Corto,cf,3,5418.43,19,2
Corto-Intermedio,sf,1,5085.17,19,2
Corto,cf,1,3546.94,25,2
Corto-Intermedio,cf,3,4041.73,25,2
Corto-Intermedio,sf,3,4597.78,25,2
Corto-Intermedio,cf,1,5160.01,25,2
Corto,cf,2,4498.5,25,2
Corto-Intermedio,cf,2,4149.35,25,2
Corto-Intermedio,sf,1,4653.49,25,2
Corto,cf,3,3569.7,25,2
Corto-Intermedio,sf,2,4519.34,25,2
Largo,sf,2,2965.12,49,2
Largo,sf,3,2704.33,49,2
Largo,cf,1,4121.87,49,2
Largo,sf,1,2929.02,49,2
Largo,cf,3,4080.69,49,2
Largo,cf,2,4808.83,49,2
Largo-Intermedio,cf,3,4424.65,49,2
Largo-Intermedio,cf,2,6564.13,49,2
Largo-Intermedio,cf,1,4285.25,49,2
Largo-Intermedio,cf,1,4865.99,86,2
Largo,cf,3,6297.34,86,2
Largo-Intermedio,cf,2,6018.34,86,2
Largo,cf,1,4840.91,86,2
Largo,sf,1,4581.81,86,2
Largo,sf,3,5981.94,86,2
Largo,cf,2,5284.27,86,2
Largo,sf,2,5695.87,86,2
Largo-Intermedio,cf,3,5005.71,86,2
Corto-Intermedio,cf,1,5130.54,22,2
Corto-Intermedio,sf,3,5040.29,22,2
Corto-Intermedio,sf,1,3953.42,22,2
Corto-Intermedio,cf,3,5533.83,22,2
Corto-Intermedio,cf,2,4799.86,22,2
Corto-Intermedio,sf,2,4244.12,22,2
Corto,cf,2,2461.54,22,2
Corto,cf,1,3404.53,22,2
Corto,cf,3,4508.11,22,2
Corto-Intermedio,sf,1,4956.3,23,2
Corto-Intermedio,sf,2,4176.61,23,2
Corto-Intermedio,sf,3,5052.52,23,2
Corto-Intermedio,cf,1,5489.15,23,2
Corto-Intermedio,cf,3,4535.45,23,2
Corto,cf,1,4394.88,23,2
Corto-Intermedio,cf,2,3612.96,23,2
Corto,cf,3,4263.49,23,2
Corto,cf,2,3595.41,23,2
Largo,cf,3,5111.71,66,2
Largo,cf,2,5216.01,66,2
Largo,cf,1,4156.97,66,2
Largo-Intermedio,cf,3,5416.27,66,2
Largo,sf,1,3882.89,66,2
Largo,sf,2,5316.71,66,2
Largo-Intermedio,cf,2,5070.87,66,2
Largo,sf,3,4868.51,66,2
Largo-Intermedio,cf,1,4404.07,66,2
Corto-Intermedio,sf,3,3847.13,38,2
Corto-Intermedio,cf,1,4687.5,38,2
Corto-Intermedio,cf,2,3594.14,38,2
Corto-Intermedio,sf,2,4214.92,38,2
Largo-Intermedio,cf,1,5298.64,38,2
Largo-Intermedio,cf,3,5538.94,38,2
Corto-Intermedio,sf,1,4645.23,38,2
Corto-Intermedio,cf,3,3527.6,38,2
Largo-Intermedio,cf,2,5829.67,38,2
Corto-Intermedio,sf,3,5418.44,39,2
Corto-Intermedio,cf,1,5300.91,39,2
Corto-Intermedio,sf,2,3672.21,39,2
Corto-Intermedio,sf,1,4117.6,39,2
Corto,cf,3,2038.07,39,2
Corto,cf,2,4029.81,39,2
Corto-Intermedio,cf,3,5775.17,39,2
Corto-Intermedio,cf,2,4183.99,39,2
Corto,cf,1,3791.16,39,2
Corto-Intermedio,sf,2,3293.36,17,2
Corto-Intermedio,sf,1,5513.22,17,2
Corto-Intermedio,cf,1,5417.97,17,2
Corto-Intermedio,sf,3,5885.43,17,2
Corto-Intermedio,cf,2,4073.94,17,2
Corto-Intermedio,cf,3,5315.76,17,2
Largo-Intermedio,cf,3,6177.33,17,2
Largo-Intermedio,cf,2,5266.05,17,2
Largo-Intermedio,cf,1,6278.22,17,2
Largo,sf,2,6361.84,63,2
Largo,cf,3,6202.39,63,2
Largo,cf,2,6077.34,63,2
Largo,cf,1,5795.71,63,2
Largo,sf,1,5765.13,63,2
Largo-Intermedio,cf,2,6026.1,63,2
Largo,sf,3,6219.42,63,2
Largo-Intermedio,cf,1,5723.32,63,2
Largo-Intermedio,cf,3,5805.39,63,2
Largo,sf,3,5115.24,56,2
Largo,cf,2,4983.39,56,2
Largo,cf,1,4622.09,56,2
Largo,cf,3,4809.43,56,2
Largo,sf,1,4701.37,56,2
Largo,sf,2,4536.19,56,2
Largo-Intermedio,cf,3,4790.03,84,2
Largo-Intermedio,cf,2,5236.35,84,2
Largo-Intermedio,cf,1,4848.21,84,2
Corto-Intermedio,cf,2,3137.51,8,2
Corto,cf,2,3584.5,8,2
Corto-Intermedio,cf,3,5042.25,8,2
Corto,cf,3,3084.67,8,2
Corto-Intermedio,cf,1,5216.43,8,2
Corto-Intermedio,sf,3,5863.41,8,2
Corto-Intermedio,sf,1,4774.95,8,2
Corto-Intermedio,sf,2,4061.86,8,2
Corto,cf,1,3856.64,8,2
Corto-Intermedio,sf,3,5241.07,21,2
Corto-Intermedio,sf,1,4496.05,21,2
Corto-Intermedio,cf,1,1186.22,21,2
Corto-Intermedio,cf,2,5829.67,21,2
Corto,cf,1,3699.96,21,2
Corto,cf,2,2361.06,21,2
Corto-Intermedio,cf,3,4888.24,21,2
Corto,cf,3,2358.79,21,2
Corto-Intermedio,sf,2,5310.56,21,2
Corto-Intermedio,cf,2,5683.78,78,2
Corto-Intermedio,sf,3,4872.09,78,2
Corto-Intermedio,sf,1,3955.44,78,2
Corto-Intermedio,sf,2,5242.86,78,2
Largo-Intermedio,cf,2,5563.11,78,2
Largo-Intermedio,cf,1,4177.66,78,2
Largo-Intermedio,cf,3,5337.04,78,2
Corto-Intermedio,cf,1,4919.94,78,2
Corto-Intermedio,cf,3,4885.35,78,2
Largo-Intermedio,cf,2,4863.95,20,2
Largo-Intermedio,cf,3,4473.09,20,2
Largo-Intermedio,cf,1,4521.13,20,2
Corto-Intermedio,sf,2,5044.82,24,2
Corto-Intermedio,cf,2,4558.46,24,2
Corto-Intermedio,sf,1,3288.66,24,2
Corto-Intermedio,cf,1,4617.42,24,2
Corto-Intermedio,sf,3,4681.47,24,2
Corto-Intermedio,cf,3,3378.79,24,2
Corto,cf,3,4038.9,24,2
Corto,cf,1,2406.23,24,2
Corto,cf,2,932.44,24,2
Largo,cf,2,5196.74,55,2
Largo,sf,2,4967.5,55,2
Largo-Intermedio,cf,2,5738.07,55,2
Largo,cf,1,6029.98,55,2
Largo-Intermedio,cf,1,5055.5,55,2
Largo,sf,3,5106.63,55,2
Largo,cf,3,5228.96,55,2
Largo,sf,1,5040.27,55,2
Largo-Intermedio,cf,3,4157.72,55,2
Corto,cf,2,3853,12,2
Corto,cf,3,1676.28,12,2
Corto-Intermedio,sf,3,4836.31,12,2
Corto-Intermedio,sf,1,4345.85,12,2
Corto-Intermedio,sf,2,4800.13,12,2
Corto-Intermedio,cf,2,4661.79,12,2
Corto-Intermedio,cf,3,3760.52,12,2
Corto,cf,1,3531.53,12,2
Corto-Intermedio,cf,1,3878.18,12,2
Largo,cf,1,5758.56,37,2
Largo,sf,3,5784.22,37,2
Largo,sf,2,4477.54,37,2
Largo-Intermedio,cf,2,5368.46,37,2
Largo,sf,1,4483.1,37,2
Corto-Intermedio,cf,3,3737.15,37,2
Largo-Intermedio,cf,1,5451.61,37,2
Largo-Intermedio,cf,3,6510,37,2
Largo,cf,3,5671.81,37,2
Largo,cf,2,5594.68,37,2
Corto-Intermedio,cf,1,3962.38,37,2
Corto-Intermedio,cf,2,5891.55,37,2
Corto-Intermedio,sf,1,3707.09,37,2
Corto-Intermedio,sf,2,3432.68,37,2
Corto-Intermedio,sf,3,4089.03,37,2
Largo,sf,2,5587.4,43,2
Largo,cf,2,5402.17,43,2
Largo,cf,3,5379.14,43,2
Largo,cf,1,5343.48,43,2
Largo-Intermedio,cf,1,4721.03,43,2
Largo-Intermedio,cf,2,5293.72,43,2
Largo,sf,3,4031.02,43,2
Largo,sf,1,4458.16,43,2
Largo-Intermedio,cf,3,4608.77,43,2
Largo,cf,2,5787.92,41,2
Largo,sf,3,4835.71,41,2
Largo,sf,2,5562.6,41,2
Largo,sf,1,4436.62,41,2
Largo,cf,1,5097.9,41,2
Largo-Intermedio,cf,1,4908.81,41,2
Largo-Intermedio,cf,3,5528.67,41,2
Largo,cf,3,5363.92,41,2
Largo-Intermedio,cf,2,5797.08,41,2
Corto-Intermedio,sf,1,3494.6,6,2
Corto-Intermedio,sf,3,4861.64,6,2
Corto-Intermedio,sf,2,4742.77,6,2
Largo-Intermedio,cf,3,6040.47,6,2
Corto-Intermedio,cf,2,5089.33,6,2
Corto-Intermedio,cf,1,3762.55,6,2
Corto-Intermedio,cf,3,5013.35,6,2
Largo-Intermedio,cf,2,5737.54,6,2
Largo-Intermedio,cf,1,5999.65,6,2
Largo,cf,1,5319.59,42,2
Largo,cf,3,5022.8,42,2
Largo-Intermedio,cf,3,6409.82,42,2
Largo,sf,3,4546.26,42,2
Largo,sf,1,5358.95,42,2
Largo,sf,2,5949.5,42,2
Largo,cf,2,6092.91,42,2
Largo-Intermedio,cf,2,5987.94,42,2
Largo-Intermedio,cf,1,5051.43,42,2
Largo,sf,2,5343.92,45,2
Largo-Intermedio,cf,3,5114.78,45,2
Largo-Intermedio,cf,1,4834.58,45,2
Largo,sf,1,5268.9,45,2
Largo-Intermedio,cf,2,4625.58,45,2
Largo,sf,3,5746.65,45,2
Largo,cf,3,5422.74,45,2
Largo,cf,2,5634.03,45,2
Largo,cf,1,4965.68,45,2
Corto-Intermedio,sf,3,5965.58,2,2
Corto-Intermedio,cf,3,5361.04,2,2
Corto,cf,3,5164.35,2,2
Corto-Intermedio,sf,2,4181.74,2,2
Corto-Intermedio,cf,2,4503.39,2,2
Corto-Intermedio,cf,1,4960.03,2,2
Corto,cf,2,5017.44,2,2
Corto,cf,1,2840.47,2,2
Corto-Intermedio,sf,1,4662.6,2,2
Corto-Intermedio,cf,2,3200.77,3,2
Corto-Intermedio,sf,3,3880.29,3,2
Corto-Intermedio,cf,1,3871.11,3,2
Corto-Intermedio,cf,3,3846.87,3,2
Corto-Intermedio,sf,1,3831.41,3,2
Corto-Intermedio,sf,2,3471.76,3,2
Corto,cf,3,1862.79,3,2
Corto,cf,2,3206.48,3,2
Corto,cf,1,2049.8,3,2
Corto-Intermedio,cf,2,5855.7,4,2
Corto-Intermedio,cf,1,3362.57,4,2
Corto-Intermedio,sf,3,4230.55,4,2
Corto-Intermedio,cf,3,4357.94,4,2
Corto-Intermedio,sf,2,3828.27,4,2
Corto-Intermedio,sf,1,3722.45,4,2
Largo-Intermedio,cf,1,5497.4,4,2
Largo-Intermedio,cf,2,6305.4,4,2
Largo-Intermedio,cf,3,5334.29,4,2
Corto-Intermedio,cf,2,4254.83,85,2
Corto-Intermedio,cf,3,3699.34,85,2
Largo-Intermedio,cf,2,5765.23,85,2
Largo-Intermedio,cf,3,4621.33,85,2
Largo-Intermedio,cf,1,3829.9,85,2
Corto-Intermedio,sf,1,3712.31,85,2
Corto-Intermedio,sf,3,3859.79,85,2
Corto-Intermedio,cf,1,3376.81,85,2
Corto-Intermedio,sf,2,4440.98,85,2
Largo-Intermedio,cf,2,5758.39,44,2
Largo-Intermedio,cf,3,5548.54,44,2
Largo,sf,1,4648.59,44,2
Largo-Intermedio,cf,1,5196.68,44,2
Largo,sf,3,4296.71,44,2
Largo,cf,2,5809.63,44,2
Largo,sf,2,4420.13,44,2
Largo,cf,1,5903.12,44,2
Largo,cf,3,5756.69,44,2
Corto-Intermedio,sf,1,4260.5,11,2
Corto-Intermedio,sf,2,4215,11,2
Corto-Intermedio,cf,1,3567.62,11,2
Corto,cf,2,3986.16,11,2
Corto-Intermedio,sf,3,4605.59,11,2
Corto,cf,1,2350.23,11,2
Corto-Intermedio,cf,2,3639.26,11,2
Corto-Intermedio,cf,3,4512.62,11,2
Corto,cf,3,4008.37,11,2
Largo-Intermedio,cf,1,5205.1,52,2
Largo-Intermedio,cf,3,5440.53,52,2
Largo,sf,1,4314.39,52,2
Largo,cf,1,5130.16,52,2
Largo,sf,2,4934.18,52,2
Largo,sf,3,4705.77,52,2
Largo-Intermedio,cf,2,5258.67,52,2
Largo,cf,3,5462.97,52,2
Largo,cf,2,4851.5,52,2
Corto-Intermedio,sf,2,4618.43,16,2
Corto,cf,1,3198.95,16,2
Corto,cf,3,1876.99,16,2
Corto-Intermedio,sf,3,4244.15,16,2
Corto,cf,2,1718.27,16,2
Corto-Intermedio,cf,2,5089.33,16,2
Corto-Intermedio,sf,1,3809.39,16,2
Corto-Intermedio,cf,1,3409.18,16,2
Corto-Intermedio,cf,3,4497.39,16,2
Largo-Intermedio,cf,2,5440.42,61,2
Largo-Intermedio,cf,1,4341.53,61,2
Largo-Intermedio,cf,3,4151.53,61,2
Largo,cf,3,4874.72,61,2
Largo,cf,2,4785.54,61,2
Largo,cf,1,4889.13,61,2
Largo,sf,3,4325.52,61,2
Largo,sf,1,3939.87,61,2
Largo,sf,2,4373.82,61,2
Largo,cf,3,6487.81,40,2
Largo,sf,3,6162.11,40,2
Largo,cf,2,6330.04,40,2
Largo,sf,2,5207.69,40,2
Largo,sf,1,5390.74,40,2
Largo,cf,1,5795.74,40,2
Largo-Intermedio,cf,3,6497.74,28,2
Largo-Intermedio,cf,1,5025,28,2
Largo-Intermedio,cf,2,6453.82,28,2
Largo,cf,3,5294.29,70,2
Largo-Intermedio,cf,2,5807.11,70,2
Largo,sf,2,4758.14,70,2
Largo,cf,1,4598.21,70,2
Largo,sf,3,4788.61,70,2
Largo,cf,2,4974.44,70,2
Largo,sf,1,3885.62,70,2
Largo-Intermedio,cf,3,5311.3,70,2
Largo-Intermedio,cf,1,5356.25,70,2
Largo,cf,1,5005.71,71,2
Largo,sf,3,4546.54,71,2
Largo,sf,1,3658.21,71,2
Largo-Intermedio,cf,3,4989.62,71,2
Largo,sf,2,3416.61,71,2
Largo,cf,3,4937.57,71,2
Largo,cf,2,4856.72,71,2
Largo-Intermedio,cf,2,5566.2,71,2
Largo-Intermedio,cf,1,5132.52,71,2
Largo-Intermedio,cf,2,5184.87,30,2
Corto-Intermedio,sf,1,5074.27,30,2
Corto-Intermedio,cf,3,4459.73,30,2
Corto-Intermedio,cf,2,4980.99,30,2
Corto-Intermedio,sf,2,4102.15,30,2
Corto-Intermedio,sf,3,4855.82,30,2
Corto-Intermedio,cf,1,3077.5,30,2
Largo-Intermedio,cf,1,5591.36,30,2
Largo-Intermedio,cf,3,4969.34,30,2
Corto-Intermedio,sf,1,2151.21,31,2
Corto-Intermedio,cf,3,4173.19,31,2
Largo-Intermedio,cf,3,4407.31,31,2
Corto-Intermedio,cf,2,4909.18,31,2
Largo-Intermedio,cf,1,5056.64,31,2
Corto-Intermedio,cf,1,2803.72,31,2
Largo-Intermedio,cf,2,5396.18,31,2
Corto-Intermedio,sf,3,3817.77,31,2
Corto-Intermedio,sf,2,3467.43,31,2
Corto-Intermedio,sf,1,1885.98,32,2
Corto-Intermedio,sf,2,4194.35,32,2
Corto,cf,1,3024.42,32,2
Corto,cf,2,4008.84,32,2
Corto,cf,3,3091.06,32,2
Corto-Intermedio,sf,3,5858.45,32,2
Corto-Intermedio,cf,3,5034.88,32,2
Corto-Intermedio,cf,1,1298.56,32,2
Corto-Intermedio,cf,2,4716.36,32,2
Corto-Intermedio,sf,2,3551.42,33,2
Corto-Intermedio,cf,1,2410.57,33,2
Corto,cf,2,2805.81,33,2
Corto-Intermedio,cf,2,3579.7,33,2
Corto-Intermedio,sf,3,4465.43,33,2
Corto,cf,3,3675.42,33,2
Corto,cf,1,924.85,33,2
Corto-Intermedio,sf,1,1120.02,33,2
Corto-Intermedio,cf,3,3606.31,33,2
Corto-Intermedio,sf,3,4863.79,35,2
Corto-Intermedio,cf,3,6166.9,35,2
Corto,cf,3,3767.71,35,2
Corto-Intermedio,cf,2,5129.79,35,2
Corto-Intermedio,cf,1,3452.21,35,2
Corto-Intermedio,sf,2,4660.01,35,2
Corto,cf,1,2672.04,35,2
Corto-Intermedio,sf,1,2421.1,35,2
Corto,cf,2,4039.14,35,2
Corto-Intermedio,sf,2,4760,9,2
Corto-Intermedio,cf,2,4880.42,9,2
Corto-Intermedio,cf,1,2847.49,9,2
Corto-Intermedio,sf,3,4622.57,9,2
Largo-Intermedio,cf,2,4620.73,9,2
Corto-Intermedio,cf,3,4164.19,9,2
Largo-Intermedio,cf,1,5856.74,9,2
Corto-Intermedio,sf,1,2575.08,9,2
Largo-Intermedio,cf,3,5820.6,9,2
Corto-Intermedio,sf,2,4663.38,29,2
Corto-Intermedio,cf,1,1733.85,29,2
Corto-Intermedio,cf,2,5110.52,29,2
Corto,cf,1,2273.5,29,2
Corto-Intermedio,cf,3,5424.19,29,2
Corto-Intermedio,sf,3,5140.42,29,2
Corto,cf,2,4684.32,29,2
Corto-Intermedio,sf,1,4994.32,29,2
Corto,cf,3,1604.65,29,2
Largo,cf,3,5905.76,46,2
Largo,sf,2,5241.9,46,2
Largo-Intermedio,cf,1,5672.67,46,2
Largo,cf,2,5581.46,46,2
Largo,sf,3,6475.81,46,2
Largo-Intermedio,cf,3,5311.69,46,2
Largo,cf,1,4612.77,46,2
Largo,sf,1,5703.36,46,2
Largo-Intermedio,cf,2,5402.49,46,2
Largo-Intermedio,cf,1,6335.48,67,2
Largo-Intermedio,cf,2,5090.07,67,2
Largo-Intermedio,cf,3,6395.35,67,2
Corto-Intermedio,sf,1,4011.44,5,2
Corto-Intermedio,cf,1,2347.62,5,2
Corto,cf,2,3990.35,5,2
Corto-Intermedio,cf,3,4802.03,5,2
Corto,cf,3,3341.06,5,2
Corto,cf,1,3763.26,5,2
Corto-Intermedio,sf,3,4954.26,5,2
Corto-Intermedio,cf,2,2593.48,5,2
Corto-Intermedio,sf,2,3812.21,5,2
